     _                     _         _ _     _       _   _
    / \   _ __  _ __      / \   __ _| (_) __| | __ _| |_(_) ___  _ __
   / _ \ | '_ \| '_ \    / _ \ / _` | | |/ _` |/ _` | __| |/ _ \| '_ \
  / ___ \| |_) | |_) |  / ___ \ (_| | | | (_| | (_| | |_| | (_) | | | |
 /_/   \_\ .__/| .__/  /_/   \_\__,_|_|_|\__,_|\__,_|\__|_|\___/|_| |_|
         |_|   |_|
